"1";"123456789";"Clarence";"Inciong";"Co";"Jr";"1996-10-01";"Male";"clarence@email.com";"clarence@ymail.com";"0999 999 9999";"0999 999 9999";"Quezon City";"ACCTG";"AIT";"FAC";"Permanent";"Professor VI";"2014-05-22"
"2";"234567890";"David";"Co";"Inciong";"III";"1996-10-05";"Male";"david@email.com";"david@ymail.com";"0999 999 9999";"0999 999 9999";"Makati City";"ACCTG";"AIT";"FAC";"Permanent";"Professor VI";"2016-03-22"
"3";"345678901";"Rence";"Renz";"Renzen";;"1999-08-12";"Male";"rence@email.com";"rence@ymail.com";"0999 999 9999";"0999 999 9999";"Taguig City";"ACCTG";"AIT";"FAC";"Permanent";"Professor VI";"2017-09-03"
